\relax 
\@writefile{toc}{\contentsline {section}{\numberline {1}challenge.hackmethod.com/challenges/}{8}}
\@writefile{toc}{\contentsline {subsection}{\numberline {1.1}March 2017}{8}}
\@writefile{toc}{\contentsline {subsubsection}{\numberline {1.1.1}Pcap: Channel Password}{8}}
\@writefile{toc}{\contentsline {subsubsection}{\numberline {1.1.2}secret.png}{8}}
\@writefile{toc}{\contentsline {subsubsection}{\numberline {1.1.3}No Bruteforcing Necessary}{8}}
\@writefile{toc}{\contentsline {subsubsection}{\numberline {1.1.4}Rick\textunderscore {}Password.txt}{8}}
\@writefile{toc}{\contentsline {section}{\numberline {2}https://xss-game.appspot.com}{8}}
\@writefile{toc}{\contentsline {subsection}{\numberline {2.1}/level1}{8}}
\@writefile{toc}{\contentsline {subsection}{\numberline {2.2}/level2}{8}}
\@writefile{toc}{\contentsline {section}{\numberline {3}alf.nu/alert1}{8}}
\@writefile{toc}{\contentsline {section}{\numberline {4}prompt.ml}{8}}
\@writefile{toc}{\contentsline {subsection}{\numberline {4.1}level 0}{9}}
\@writefile{toc}{\contentsline {subsection}{\numberline {4.2}level 1}{9}}
\@writefile{toc}{\contentsline {section}{\numberline {5}wechall.net}{9}}
\@writefile{toc}{\contentsline {subsection}{\numberline {5.1}Training: Get Sourced}{9}}
\@writefile{toc}{\contentsline {subsection}{\numberline {5.2}Training: ASCII}{9}}
\@writefile{toc}{\contentsline {subsection}{\numberline {5.3}Encodings: URL}{9}}
\@writefile{toc}{\contentsline {subsection}{\numberline {5.4}Training: WWW-Robots}{9}}
\@writefile{toc}{\contentsline {subsection}{\numberline {5.5}Training: Crypto - Caesar I}{9}}
\@writefile{toc}{\contentsline {subsection}{\numberline {5.6}Training: Stego I}{9}}
\@writefile{toc}{\contentsline {section}{\numberline {6}pwnerrank.com}{10}}
\@writefile{toc}{\contentsline {subsection}{\numberline {6.1}Web Exploitation}{10}}
\@writefile{toc}{\contentsline {subsubsection}{\numberline {6.1.1}Javascript static code analysis}{10}}
\@writefile{toc}{\contentsline {subsubsection}{\numberline {6.1.2}HTTP headers}{10}}
\@writefile{toc}{\contentsline {section}{\numberline {7}overthewire.org}{10}}
\@writefile{toc}{\contentsline {subsection}{\numberline {7.1}bandit -- COMPLETE}{10}}
\@writefile{toc}{\contentsline {subsubsection}{\numberline {7.1.1}level 0}{10}}
\@writefile{toc}{\contentsline {subsubsection}{\numberline {7.1.2}level 0 $\rightarrow $ 1}{10}}
\@writefile{toc}{\contentsline {subsubsection}{\numberline {7.1.3}level 1 $\rightarrow $ 2}{10}}
\@writefile{toc}{\contentsline {subsubsection}{\numberline {7.1.4}level 2 $\rightarrow $ 3}{10}}
\@writefile{toc}{\contentsline {subsubsection}{\numberline {7.1.5}level 3 $\rightarrow $ 4}{10}}
\@writefile{toc}{\contentsline {subsubsection}{\numberline {7.1.6}level 4 $\rightarrow $ 5}{10}}
\@writefile{toc}{\contentsline {subsubsection}{\numberline {7.1.7}level 5 $\rightarrow $ 6}{11}}
\@writefile{toc}{\contentsline {subsubsection}{\numberline {7.1.8}level 6 $\rightarrow $ 7}{11}}
\@writefile{toc}{\contentsline {subsubsection}{\numberline {7.1.9}level 7 $\rightarrow $ 8}{11}}
\@writefile{toc}{\contentsline {subsubsection}{\numberline {7.1.10}level 8 $\rightarrow $ 9}{11}}
\@writefile{toc}{\contentsline {subsubsection}{\numberline {7.1.11}level 9 $\rightarrow $ 10}{11}}
\@writefile{toc}{\contentsline {subsubsection}{\numberline {7.1.12}level 10 $\rightarrow $ 11}{11}}
\@writefile{toc}{\contentsline {subsubsection}{\numberline {7.1.13}level 11 $\rightarrow $ 12}{11}}
\@writefile{toc}{\contentsline {subsubsection}{\numberline {7.1.14}level 12 $\rightarrow $ 13}{12}}
\@writefile{toc}{\contentsline {subsubsection}{\numberline {7.1.15}level 13 $\rightarrow $ 14}{12}}
\@writefile{toc}{\contentsline {subsubsection}{\numberline {7.1.16}level 14 $\rightarrow $ 15}{12}}
\@writefile{toc}{\contentsline {subsubsection}{\numberline {7.1.17}level 15 $\rightarrow $ 16}{12}}
\@writefile{toc}{\contentsline {subsubsection}{\numberline {7.1.18}level 16 $\rightarrow $ 17}{12}}
\@writefile{toc}{\contentsline {subsubsection}{\numberline {7.1.19}level 17 $\rightarrow $ 18}{12}}
\@writefile{toc}{\contentsline {subsubsection}{\numberline {7.1.20}level 18 $\rightarrow $ 19}{12}}
\@writefile{toc}{\contentsline {subsubsection}{\numberline {7.1.21}level 19 $\rightarrow $ 20}{13}}
\@writefile{toc}{\contentsline {subsubsection}{\numberline {7.1.22}level 20 $\rightarrow $ 21}{13}}
\@writefile{toc}{\contentsline {subsubsection}{\numberline {7.1.23}level 21 $\rightarrow $ 22}{13}}
\@writefile{toc}{\contentsline {subsubsection}{\numberline {7.1.24}level 22 $\rightarrow $ 23}{13}}
\@writefile{toc}{\contentsline {subsubsection}{\numberline {7.1.25}level 23 $\rightarrow $ 24}{13}}
\@writefile{toc}{\contentsline {subsubsection}{\numberline {7.1.26}level 24 $\rightarrow $ 25}{13}}
\@writefile{toc}{\contentsline {subsubsection}{\numberline {7.1.27}level 25 $\rightarrow $ 26}{13}}
\@writefile{toc}{\contentsline {subsubsection}{\numberline {7.1.28}level 26 $\rightarrow $ 27}{13}}
\@writefile{toc}{\contentsline {subsection}{\numberline {7.2}leviathan -- COMPLETE}{14}}
\@writefile{toc}{\contentsline {subsubsection}{\numberline {7.2.1}level 0}{14}}
\@writefile{toc}{\contentsline {subsubsection}{\numberline {7.2.2}level 0 $\rightarrow $ 1}{14}}
\@writefile{toc}{\contentsline {subsubsection}{\numberline {7.2.3}level 1 $\rightarrow $ 2}{14}}
\@writefile{toc}{\contentsline {subsubsection}{\numberline {7.2.4}level 2 $\rightarrow $ 3}{14}}
\@writefile{toc}{\contentsline {subsubsection}{\numberline {7.2.5}level 3 $\rightarrow $ 4}{14}}
\@writefile{toc}{\contentsline {subsubsection}{\numberline {7.2.6}level 4 $\rightarrow $ 5}{14}}
\@writefile{toc}{\contentsline {subsubsection}{\numberline {7.2.7}level 5 $\rightarrow $ 6}{14}}
\@writefile{toc}{\contentsline {subsubsection}{\numberline {7.2.8}level 6 $\rightarrow $ 7}{14}}
\@writefile{toc}{\contentsline {subsection}{\numberline {7.3}natas}{15}}
\@writefile{toc}{\contentsline {subsubsection}{\numberline {7.3.1}level 0}{15}}
\@writefile{toc}{\contentsline {subsubsection}{\numberline {7.3.2}level 0 $\rightarrow $ 1}{15}}
\@writefile{toc}{\contentsline {subsubsection}{\numberline {7.3.3}level 1 $\rightarrow $ 2}{15}}
\@writefile{toc}{\contentsline {subsubsection}{\numberline {7.3.4}level 2 $\rightarrow $ 3}{15}}
\@writefile{toc}{\contentsline {subsubsection}{\numberline {7.3.5}level 3 $\rightarrow $ 4}{15}}
\@writefile{toc}{\contentsline {subsubsection}{\numberline {7.3.6}level 4 $\rightarrow $ 5}{15}}
\@writefile{toc}{\contentsline {subsubsection}{\numberline {7.3.7}level 5 $\rightarrow $ 6}{15}}
\@writefile{toc}{\contentsline {subsubsection}{\numberline {7.3.8}level 6 $\rightarrow $ 7}{16}}
\@writefile{toc}{\contentsline {subsubsection}{\numberline {7.3.9}level 7 $\rightarrow $ 8}{16}}
\@writefile{toc}{\contentsline {subsubsection}{\numberline {7.3.10}level 8 $\rightarrow $ 9}{16}}
\@writefile{toc}{\contentsline {subsubsection}{\numberline {7.3.11}level 9 $\rightarrow $ 10}{16}}
\@writefile{toc}{\contentsline {subsubsection}{\numberline {7.3.12}level 10 $\rightarrow $ 11}{16}}
\@writefile{toc}{\contentsline {subsubsection}{\numberline {7.3.13}level 11 $\rightarrow $ 12}{16}}
\@writefile{toc}{\contentsline {subsection}{\numberline {7.4}krypton}{17}}
\@writefile{toc}{\contentsline {subsubsection}{\numberline {7.4.1}level 0}{17}}
\@writefile{toc}{\contentsline {subsubsection}{\numberline {7.4.2}level 0 $\rightarrow $ 1}{17}}
\@writefile{toc}{\contentsline {subsubsection}{\numberline {7.4.3}level 1 $\rightarrow $ 2}{17}}
\@writefile{toc}{\contentsline {subsection}{\numberline {7.5}behemoth}{17}}
\@writefile{toc}{\contentsline {subsubsection}{\numberline {7.5.1}level 0}{17}}
\@writefile{toc}{\contentsline {subsubsection}{\numberline {7.5.2}level 0 $\rightarrow $ 1}{17}}
\@writefile{toc}{\contentsline {subsection}{\numberline {7.6}semtex}{17}}
\@writefile{toc}{\contentsline {subsubsection}{\numberline {7.6.1}level 0}{17}}
\@writefile{toc}{\contentsline {subsubsection}{\numberline {7.6.2}level 0 $\rightarrow $ 1}{18}}
\@writefile{toc}{\contentsline {subsection}{\numberline {7.7}narnia}{18}}
\@writefile{toc}{\contentsline {subsubsection}{\numberline {7.7.1}level 0}{18}}
\@writefile{toc}{\contentsline {subsubsection}{\numberline {7.7.2}level 0 $\rightarrow $ 1}{18}}
\@writefile{toc}{\contentsline {subsubsection}{\numberline {7.7.3}level 1 $\rightarrow $ 2}{18}}
\@writefile{toc}{\contentsline {subsection}{\numberline {7.8}utumno}{18}}
\@writefile{toc}{\contentsline {subsubsection}{\numberline {7.8.1}utumno 0}{18}}
\@writefile{toc}{\contentsline {subsection}{\numberline {7.9}maze}{18}}
\@writefile{toc}{\contentsline {subsubsection}{\numberline {7.9.1}level 0}{18}}
\@writefile{toc}{\contentsline {subsection}{\numberline {7.10}vortex}{19}}
\@writefile{toc}{\contentsline {subsubsection}{\numberline {7.10.1}level 0 $\rightarrow $ 1}{19}}
\@writefile{toc}{\contentsline {section}{\numberline {8}chall.stypr.com}{20}}
\@writefile{toc}{\contentsline {section}{\numberline {9}backdoor.sdslabs.co}{21}}
\@writefile{toc}{\contentsline {subsubsection}{\numberline {9.0.1}ECHO - INCOMPLETE}{21}}
\@writefile{toc}{\contentsline {subsubsection}{\numberline {9.0.2}Simple Cipher - INCOMPLETE}{21}}
\@writefile{toc}{\contentsline {section}{\numberline {10}root-me.org}{22}}
\@writefile{toc}{\contentsline {subsection}{\numberline {10.1}cryptanalysis}{22}}
\@writefile{toc}{\contentsline {subsubsection}{\numberline {10.1.1}Encoding - ASCII}{22}}
\@writefile{toc}{\contentsline {subsubsection}{\numberline {10.1.2}Encoding - UU}{22}}
\@writefile{toc}{\contentsline {subsubsection}{\numberline {10.1.3}Hash - Message Digest 5}{22}}
\@writefile{toc}{\contentsline {subsection}{\numberline {10.2}Web - Client}{22}}
\@writefile{toc}{\contentsline {subsubsection}{\numberline {10.2.1}Javascript - Authentication}{22}}
\@writefile{toc}{\contentsline {subsubsection}{\numberline {10.2.2}Javascript - Source}{22}}
\@writefile{toc}{\contentsline {subsubsection}{\numberline {10.2.3}Javascript - Obfuscation 1}{22}}
\@writefile{toc}{\contentsline {subsection}{\numberline {10.3}Network}{22}}
\@writefile{toc}{\contentsline {subsubsection}{\numberline {10.3.1}FTP - authentication}{22}}
\@writefile{toc}{\contentsline {subsubsection}{\numberline {10.3.2}TELNET - authentication}{22}}
\@writefile{toc}{\contentsline {subsubsection}{\numberline {10.3.3}ETHERNET - frame}{23}}
\@writefile{toc}{\contentsline {subsubsection}{\numberline {10.3.4}Twitter authentication}{23}}
\@writefile{toc}{\contentsline {subsection}{\numberline {10.4}App - System}{23}}
\@writefile{toc}{\contentsline {subsubsection}{\numberline {10.4.1}ELF32 - Stack buffer overflow basic 1}{23}}
\@writefile{toc}{\contentsline {subsubsection}{\numberline {10.4.2}ELF32 - Stack buffer overflow basic 2}{23}}
\@writefile{toc}{\contentsline {subsection}{\numberline {10.5}App - Script}{23}}
\@writefile{toc}{\contentsline {subsubsection}{\numberline {10.5.1}ELF32 - System 1}{23}}
\@writefile{toc}{\contentsline {subsubsection}{\numberline {10.5.2}ELF32 - System 2}{24}}
\@writefile{toc}{\contentsline {subsubsection}{\numberline {10.5.3}Python - input()}{24}}
\@writefile{toc}{\contentsline {section}{\numberline {11}bright-shadows.net}{25}}
\@writefile{toc}{\contentsline {section}{\numberline {12}crackmes.de}{26}}
\@writefile{toc}{\contentsline {subsection}{\numberline {12.1}var by UnChapelierFou}{26}}
\@writefile{toc}{\contentsline {subsection}{\numberline {12.2}simplepin by thetrh51}{26}}
\@writefile{toc}{\contentsline {subsection}{\numberline {12.3}Crackme\_Nasm by rezk2ll}{26}}
\@writefile{toc}{\contentsline {subsection}{\numberline {12.4}j333 by josamont}{26}}
\@writefile{toc}{\contentsline {section}{\numberline {13}hackthissite.org}{27}}
\@writefile{toc}{\contentsline {section}{\numberline {14}hacker-project.com}{27}}
\@writefile{toc}{\contentsline {section}{\numberline {15}hackerforever.com}{28}}
\@writefile{toc}{\contentsline {section}{\numberline {16}vulnhub.com}{29}}
\@writefile{toc}{\contentsline {subsection}{\numberline {16.1}PwnLab: init ---MORE TO DO---}{29}}
\@writefile{toc}{\contentsline {subsection}{\numberline {16.2}Tommy Boy: 1}{29}}
\@writefile{toc}{\contentsline {section}{\numberline {17}exploit-exercises.com}{30}}
\@writefile{toc}{\contentsline {subsection}{\numberline {17.1}nebula}{30}}
\@writefile{toc}{\contentsline {subsubsection}{\numberline {17.1.1}level 00}{30}}
\@writefile{toc}{\contentsline {subsubsection}{\numberline {17.1.2}level 01}{30}}
\@writefile{toc}{\contentsline {subsubsection}{\numberline {17.1.3}level 02}{30}}
\@writefile{toc}{\contentsline {subsubsection}{\numberline {17.1.4}level 03}{30}}
\@writefile{toc}{\contentsline {subsubsection}{\numberline {17.1.5}level 04}{30}}
\@writefile{toc}{\contentsline {subsubsection}{\numberline {17.1.6}level 05}{30}}
\@writefile{toc}{\contentsline {subsubsection}{\numberline {17.1.7}level 06}{30}}
\@writefile{toc}{\contentsline {subsubsection}{\numberline {17.1.8}level 07}{30}}
\@writefile{toc}{\contentsline {subsubsection}{\numberline {17.1.9}level 08}{31}}
\@writefile{toc}{\contentsline {subsubsection}{\numberline {17.1.10}level 09}{31}}
\@writefile{toc}{\contentsline {subsection}{\numberline {17.2}protostar}{31}}
\@writefile{toc}{\contentsline {subsubsection}{\numberline {17.2.1}Stack 0}{31}}
\@writefile{toc}{\contentsline {subsubsection}{\numberline {17.2.2}Stack 1}{31}}
\@writefile{toc}{\contentsline {subsubsection}{\numberline {17.2.3}Stack 2}{31}}
\@writefile{toc}{\contentsline {subsubsection}{\numberline {17.2.4}Stack 3}{31}}
\@writefile{toc}{\contentsline {subsubsection}{\numberline {17.2.5}Format 0}{31}}
\@writefile{toc}{\contentsline {section}{\numberline {18}net-force.nl}{32}}
\@writefile{toc}{\contentsline {subsection}{\numberline {18.1}Javascript}{32}}
\@writefile{toc}{\contentsline {subsubsection}{\numberline {18.1.1}1}{32}}
\@writefile{toc}{\contentsline {subsubsection}{\numberline {18.1.2}2}{32}}
\@writefile{toc}{\contentsline {subsubsection}{\numberline {18.1.3}3}{32}}
\@writefile{toc}{\contentsline {subsubsection}{\numberline {18.1.4}4}{32}}
\@writefile{toc}{\contentsline {subsection}{\numberline {18.2}Cryptography}{32}}
\@writefile{toc}{\contentsline {subsubsection}{\numberline {18.2.1}1}{32}}
\@writefile{toc}{\contentsline {subsection}{\numberline {18.3}Programming}{32}}
\@writefile{toc}{\contentsline {subsubsection}{\numberline {18.3.1}3}{32}}
\@writefile{toc}{\contentsline {subsection}{\numberline {18.4}Steganography}{32}}
\@writefile{toc}{\contentsline {subsubsection}{\numberline {18.4.1}1}{32}}
\@writefile{toc}{\contentsline {subsubsection}{\numberline {18.4.2}2}{32}}
\@writefile{toc}{\contentsline {subsubsection}{\numberline {18.4.3}3}{33}}
\@writefile{toc}{\contentsline {subsubsection}{\numberline {18.4.4}6}{33}}
\@writefile{toc}{\contentsline {subsection}{\numberline {18.5}Internet}{33}}
\@writefile{toc}{\contentsline {subsubsection}{\numberline {18.5.1}3}{33}}
\@writefile{toc}{\contentsline {subsubsection}{\numberline {18.5.2}4}{33}}
\@writefile{toc}{\contentsline {subsubsection}{\numberline {18.5.3}6}{33}}
\@writefile{toc}{\contentsline {subsection}{\numberline {18.6}Exploits}{33}}
\@writefile{toc}{\contentsline {subsubsection}{\numberline {18.6.1}1}{33}}
\@writefile{toc}{\contentsline {subsubsection}{\numberline {18.6.2}2}{33}}
\@writefile{toc}{\contentsline {subsubsection}{\numberline {18.6.3}3}{33}}
\@writefile{toc}{\contentsline {subsubsection}{\numberline {18.6.4}4}{34}}
\@writefile{toc}{\contentsline {subsubsection}{\numberline {18.6.5}5}{34}}
\@writefile{toc}{\contentsline {subsubsection}{\numberline {18.6.6}8}{34}}
\@writefile{toc}{\contentsline {section}{\numberline {19}mod-x.co.uk}{35}}
\@writefile{toc}{\contentsline {subsection}{\numberline {19.1}Login procedure}{35}}
\@writefile{toc}{\contentsline {subsection}{\numberline {19.2}New logins}{35}}
\@writefile{toc}{\contentsline {subsection}{\numberline {19.3}Terminal password}{35}}
\@writefile{toc}{\contentsline {section}{\numberline {20}io.netgarage.org}{36}}
\@writefile{toc}{\contentsline {subsection}{\numberline {20.1}level 1}{36}}
\@writefile{toc}{\contentsline {subsection}{\numberline {20.2}level 2}{36}}
\@writefile{toc}{\contentsline {section}{\numberline {21}bright-shadows.net}{37}}
\@writefile{toc}{\contentsline {section}{\numberline {22}hackertest.net}{38}}
\@writefile{toc}{\contentsline {subsection}{\numberline {22.1}level 1}{38}}
\@writefile{toc}{\contentsline {subsection}{\numberline {22.2}level 2}{38}}
\@writefile{toc}{\contentsline {subsection}{\numberline {22.3}level 3}{38}}
\@writefile{toc}{\contentsline {subsection}{\numberline {22.4}level 4}{38}}
\@writefile{toc}{\contentsline {subsection}{\numberline {22.5}level 5}{38}}
\@writefile{toc}{\contentsline {subsection}{\numberline {22.6}level 6}{38}}
\@writefile{toc}{\contentsline {subsection}{\numberline {22.7}level 7}{38}}
\@writefile{toc}{\contentsline {section}{\numberline {23}smashthestack.org}{39}}
\@writefile{toc}{\contentsline {subsection}{\numberline {23.1}blackbox}{39}}
\@writefile{toc}{\contentsline {subsubsection}{\numberline {23.1.1}level1}{39}}
\@writefile{toc}{\contentsline {subsubsection}{\numberline {23.1.2}level2}{39}}
\@writefile{toc}{\contentsline {subsection}{\numberline {23.2}blowfish}{39}}
\@writefile{toc}{\contentsline {subsubsection}{\numberline {23.2.1}level1}{39}}
\@writefile{toc}{\contentsline {subsubsection}{\numberline {23.2.2}level2}{39}}
\@writefile{toc}{\contentsline {subsubsection}{\numberline {23.2.3}level3}{39}}
\@writefile{toc}{\contentsline {section}{\numberline {24}reversing.kr}{40}}
\@writefile{toc}{\contentsline {section}{\numberline {25}microcorruption.com}{41}}
\@writefile{toc}{\contentsline {section}{\numberline {26}ringzer0team}{42}}
\@writefile{toc}{\contentsline {subsection}{\numberline {26.1}Web}{42}}
\@writefile{toc}{\contentsline {subsubsection}{\numberline {26.1.1}Big Brother is watching}{42}}
\@writefile{toc}{\contentsline {subsubsection}{\numberline {26.1.2}Looking for password file}{42}}
\@writefile{toc}{\contentsline {subsection}{\numberline {26.2}JavaScript}{42}}
\@writefile{toc}{\contentsline {subsubsection}{\numberline {26.2.1}Client side validation is bad!}{42}}
\@writefile{toc}{\contentsline {subsubsection}{\numberline {26.2.2}Hashing is more secure}{42}}
\@writefile{toc}{\contentsline {section}{\numberline {27}w3challs.com}{43}}
\@writefile{toc}{\contentsline {subsection}{\numberline {27.1}Hacking}{43}}
\@writefile{toc}{\contentsline {subsubsection}{\numberline {27.1.1}Change your browser}{43}}
\@writefile{toc}{\contentsline {subsection}{\numberline {27.2}Wargame}{43}}
\@writefile{toc}{\contentsline {subsubsection}{\numberline {27.2.1}securecat}{43}}
\@writefile{toc}{\contentsline {section}{\numberline {28}hax.tor}{44}}
\@writefile{toc}{\contentsline {subsection}{\numberline {28.1}level 1}{44}}
\@writefile{toc}{\contentsline {subsection}{\numberline {28.2}level 2}{44}}
\@writefile{toc}{\contentsline {subsection}{\numberline {28.3}level 3}{44}}
\@writefile{toc}{\contentsline {subsection}{\numberline {28.4}level 4}{44}}
\@writefile{toc}{\contentsline {section}{\numberline {29}gracker.org}{45}}
\@writefile{toc}{\contentsline {subsection}{\numberline {29.1}level 0}{45}}
\@writefile{toc}{\contentsline {subsection}{\numberline {29.2}level 1}{45}}
\@writefile{toc}{\contentsline {subsection}{\numberline {29.3}level 2}{45}}
\@writefile{toc}{\contentsline {subsection}{\numberline {29.4}level 3}{45}}
\@writefile{toc}{\contentsline {subsection}{\numberline {29.5}level 4}{45}}
\@writefile{toc}{\contentsline {section}{\numberline {30}pwnable.kr}{46}}
\@writefile{toc}{\contentsline {subsection}{\numberline {30.1}Toddler's Bottle}{46}}
\@writefile{toc}{\contentsline {subsubsection}{\numberline {30.1.1}fd}{46}}
\@writefile{toc}{\contentsline {subsubsection}{\numberline {30.1.2}shellshock}{46}}
\@writefile{toc}{\contentsline {subsubsection}{\numberline {30.1.3}bof}{46}}
\@writefile{toc}{\contentsline {subsubsection}{\numberline {30.1.4}cmd1}{46}}
\@writefile{toc}{\contentsline {subsubsection}{\numberline {30.1.5}cmd2 - INCOMPLETE}{47}}
\@writefile{toc}{\contentsline {section}{\numberline {31}hellboundhackers.org}{48}}
\@writefile{toc}{\contentsline {subsection}{\numberline {31.1}Basic Web Hacking}{48}}
\@writefile{toc}{\contentsline {subsubsection}{\numberline {31.1.1}1}{48}}
\@writefile{toc}{\contentsline {subsubsection}{\numberline {31.1.2}2}{48}}
\@writefile{toc}{\contentsline {subsubsection}{\numberline {31.1.3}3}{48}}
\@writefile{toc}{\contentsline {subsubsection}{\numberline {31.1.4}4}{48}}
\@writefile{toc}{\contentsline {subsection}{\numberline {31.2}JavaScript Hacking}{48}}
\@writefile{toc}{\contentsline {subsubsection}{\numberline {31.2.1}1}{48}}
\@writefile{toc}{\contentsline {subsubsection}{\numberline {31.2.2}2}{48}}
\@writefile{toc}{\contentsline {subsubsection}{\numberline {31.2.3}3}{48}}
\@writefile{toc}{\contentsline {subsubsection}{\numberline {31.2.4}4}{48}}
\@writefile{toc}{\contentsline {section}{\numberline {32}picoctf.com}{49}}
\@writefile{toc}{\contentsline {subsection}{\numberline {32.1}Miscellaneous - unlock kitchen table computer}{49}}
\@writefile{toc}{\contentsline {subsection}{\numberline {32.2}Web exploitation - father's room table}{49}}
\@writefile{toc}{\contentsline {subsection}{\numberline {32.3}Miscellaneous - father's room bedside table}{49}}
\@writefile{toc}{\contentsline {subsection}{\numberline {32.4}Web exploitation - father's room desk}{49}}
\@writefile{toc}{\contentsline {subsection}{\numberline {32.5}Miscellaneous - unlock cd on bookshelf}{49}}
\@writefile{toc}{\contentsline {subsection}{\numberline {32.6}Cryptography - documents on table}{49}}
\@writefile{toc}{\contentsline {subsection}{\numberline {32.7}Cryptography - corrupted harddrive in wardrobe}{49}}
