1700...1799		5
1800...1899		3
1900...1999		1
200...2099		0



Enero		6
Febrero		2
Marzo		2
Abril		5
Mayo		0
Junio		3
Julio		5
Agosto		1
Septiembre		4
Octubre		6
Noviembre		2
Diciembre		4



Lunes		1
Martes		2
Miércoles		3
Jueves		4
Viernes		5
Sábado		6
Domingo		